Peace and Trust Progress Journal - 2 Group Project: Agriculture in Turkey - Preprocessing
…
new_cols <- c("province","year","decare")
colnames(tarim_raw) <- new_cols
tarim <-tarim_raw
new_cols <- c("vegetable_type","province","year","decare")
colnames(sebze_raw) <- new_cols
new_cols <- c("grain_type","province","year","decare")
colnames(tahil_raw) <- new_cols

Transform Meyve Dataset

meyve <- meyve_raw %>% pivot_longer(cols = 'Adana-1':'Şırnak-73', names_to = 'province',
         values_to = 'production') 
meyve

# A tibble: 297,675 × 4
   Tür                                                     Yıl   provi…¹ produ…²
   <chr>                                                   <chr> <chr>     <dbl>
 1 Meyve Veren Yaşta Ağaç Sayısı ve 01.21.11.01.01. (Sofr… 2010  Adana-1       0
 2 Meyve Veren Yaşta Ağaç Sayısı ve 01.21.11.01.01. (Sofr… 2010  Adıyam…       0
 3 Meyve Veren Yaşta Ağaç Sayısı ve 01.21.11.01.01. (Sofr… 2010  Afyonk…       0
 4 Meyve Veren Yaşta Ağaç Sayısı ve 01.21.11.01.01. (Sofr… 2010  Aksara…       0
 5 Meyve Veren Yaşta Ağaç Sayısı ve 01.21.11.01.01. (Sofr… 2010  Amasya…       0
 6 Meyve Veren Yaşta Ağaç Sayısı ve 01.21.11.01.01. (Sofr… 2010  Ankara…       0
 7 Meyve Veren Yaşta Ağaç Sayısı ve 01.21.11.01.01. (Sofr… 2010  Antaly…       0
 8 Meyve Veren Yaşta Ağaç Sayısı ve 01.21.11.01.01. (Sofr… 2010  Ardaha…      NA
 9 Meyve Veren Yaşta Ağaç Sayısı ve 01.21.11.01.01. (Sofr… 2010  Artvin…       0
10 Meyve Veren Yaşta Ağaç Sayısı ve 01.21.11.01.01. (Sofr… 2010  Aydın-9       0
# … with 297,665 more rows, and abbreviated variable names ¹​province,
#   ²​production
…
sum(is.na(meyve))

[1] 162452

sum(is.na(sebze))

[1] 42723

If we remove the NAs, we may miss the provinces where some agriculture products are not produced/ or TUIK cannot get any information. So we first check whether there are 0 values

tahil %>%
  filter(decare==0)

# A tibble: 475 × 8
   main_type         product_code    produc…¹ unit  provi…² provi…³  year decare
   <chr>             <chr>           <chr>    <chr> <chr>   <chr>   <dbl>  <dbl>
 1 Ekilen Alan       01.19.31.09.00. "Yonca … Dekar Afyonk… 3        2010      0
 2 Hasat Edilen Alan 01.19.31.09.00. "Yonca … Dekar Afyonk… 3        2010      0
 3 Ekilen Alan       01.19.31.05.00. "Korung… Dekar Aksaray 68       2010      0
 4 Ekilen Alan       01.19.31.09.00. "Yonca … Dekar Aksaray 68       2010      0
 5 Hasat Edilen Alan 01.19.31.05.00. "Korung… Dekar Aksaray 68       2010      0
 6 Hasat Edilen Alan 01.19.31.09.00. "Yonca … Dekar Aksaray 68       2010      0
 7 Ekilen Alan       01.19.31.05.00. "Korung… Dekar Ardahan 75       2010      0
 8 Hasat Edilen Alan 01.19.31.05.00. "Korung… Dekar Ardahan 75       2010      0
 9 Ekilen Alan       01.19.31.05.00. "Korung… Dekar Artvin  8        2010      0
10 Ekilen Alan       01.19.31.09.00. "Yonca … Dekar Artvin  8        2010      0
# … with 465 more rows, and abbreviated variable names ¹​product_name,
#   ²​province, ³​province_code
…
