Peace and Trust Progress Journal - 3 Group Project: Agriculture in Turkey - EDA
…
Yearly agriculture areas

Add previous decares to the dataframe

df_1 <- tarim %>% 
  arrange(province, year) %>% 
  group_by(province) %>% 
  mutate(prev_decare = lag(decare)) %>% 
  ungroup()
df_1

# A tibble: 972 × 5
   province province_code  year   decare prev_decare
   <chr>    <chr>         <dbl>    <dbl>       <dbl>
 1 Adana    1              2010 5506353          NA 
 2 Adana    1              2011 4962979.    5506353 
 3 Adana    1              2012 4807968     4962979.
 4 Adana    1              2013 4751612.    4807968 
 5 Adana    1              2014 4982042.    4751612.
 6 Adana    1              2015 4887150     4982042.
 7 Adana    1              2016 4914333     4887150 
 8 Adana    1              2017 4981433     4914333 
 9 Adana    1              2018 4855975     4981433 
10 Adana    1              2019 4767252     4855975 
# … with 962 more rows

If we look at year by year lost, the biggest lost was in Sivas, 2011 with 2.290.480 decare loss. Second is Kars with 1.628.918, third is Konya with 1.526.849. However, Konya’s total agriculture areas are greater than others. Rate of yearly difference and decare will be another indicator.

df_1 <- df_1 %>%
  mutate(difference = (decare-prev_decare))
arrange(df_1, difference)

# A tibble: 972 × 6
   province      province_code  year    decare prev_decare difference
   <chr>         <chr>         <dbl>     <dbl>       <dbl>      <dbl>
 1 Sivas         58             2011  7298275     9588755   -2290480 
 2 Kars          36             2013  2118640     3747558   -1628918 
 3 Konya         42             2011 19242360    20769209   -1526849 
 4 Şanlıurfa     63             2011 11444392.   12591457   -1147065.
 5 Yozgat        66             2013  5991422     6985982    -994560 
 6 Konya         42             2017 18854582    19636340.   -781758.
 7 Şanlıurfa     63             2012 10719605    11444392.   -724787.
 8 Adana         1              2011  4962979.    5506353    -543374.
 9 Şanlıurfa     63             2018 10543716    11079753    -536037 
10 Kahramanmaraş 46             2012  3225058.    3753120.   -528062.
# … with 962 more rows

If we sort according to rate of difference Ardahan,2014 is the first with 0.7, Kars,2013 and Karabük,2018 are the second and Third in terms of yearly agriculture area lost.

df_1 <- df_1 %>%
  mutate(rate_difference = difference/decare)
arrange(df_1, rate_difference)

# A tibble: 972 × 7
   province province_code  year   decare prev_decare difference rate_difference
   <chr>    <chr>         <dbl>    <dbl>       <dbl>      <dbl>           <dbl>
 1 Ardahan  75             2014  329525      588632    -259107           -0.786
 2 Kars     36             2013 2118640     3747558   -1628918           -0.769
 3 Karabük  78             2018  337488      498499    -161011           -0.477
 4 Osmaniye 80             2011 1153635     1664382    -510747           -0.443
 5 Sivas    58             2011 7298275     9588755   -2290480           -0.314
 6 Kocaeli  41             2018  786927      974696    -187769           -0.239
 7 Yalova   77             2016  107163.     132533.    -25370           -0.237
 8 Ardahan  75             2013  588632      723061    -134429           -0.228
 9 Şırnak   73             2016  778838      944625    -165787           -0.213
10 Yalova   77             2012  127971.     154171.    -26200.          -0.205
# … with 962 more rows
…
