Peace and Trust Progress Journal - 4 Group Project: Agriculture in Turkey - Report
…
When we look at year by year agricultural area lost within regions of Turkey, “İç Anadolu” had the biggest loses in 2011 and 2017. However İç Anadolu’ total agricultural lands also high as compared to other regions so looking rate of yearly difference would be good indicator to analyze.

Code

df_region_1 <- df_region_1 %>% 
       mutate(difference=(Total_Agriarea_in_the_Region-prev_decare)) %>% 
         arrange((desc(-1*difference)))
df_region_1

# A tibble: 84 × 5
   region                     year Total_Agriarea_in_the_Region prev_d…¹ diffe…²
   <chr>                     <dbl>                        <dbl>    <dbl>   <dbl>
 1 İç Anadolu Bölgesi         2011                    78302580.   8.14e7 -3.09e6
 2 İç Anadolu Bölgesi         2017                    77860586.   8.02e7 -2.33e6
 3 Güneydoğu Anadolu Bölgesi  2011                    30283342.   3.21e7 -1.84e6
 4 Doğu Anadolu Bölgesi       2013                    24865102.   2.67e7 -1.80e6
 5 Marmara Bölgesi            2011                    23099178.   2.40e7 -9.03e5
 6 Ege Bölgesi                2011                    27523248.   2.84e7 -8.74e5
 7 Güneydoğu Anadolu Bölgesi  2016                    30263398    3.11e7 -8.46e5
 8 Akdeniz Bölgesi            2011                    23881021.   2.46e7 -7.67e5
 9 Akdeniz Bölgesi            2012                    23179936.   2.39e7 -7.01e5
10 Güneydoğu Anadolu Bölgesi  2017                    29666365    3.03e7 -5.97e5
# … with 74 more rows, and abbreviated variable names ¹​prev_decare, ²​difference
…
Code

meyve_group <- meyve

meyve_group$product_name <- gsub(".*Elma.*", "Elma", meyve$product_name)

df_elma <- meyve_group %>%
  filter(str_trim(unit)=='Kg/Meyve Veren Ağaç')%>%
  group_by(year,product_name,unit) %>%
  summarise(toplam = sum(production, na.rm = TRUE)) %>%
  arrange(year,desc(toplam)) 
df_elma

# A tibble: 453 × 4
# Groups:   year, product_name [453]
    year product_name unit                toplam
   <dbl> <chr>        <chr>                <dbl>
 1  2010 "Elma"       Kg/Meyve Veren Ağaç  16454
 2  2010 "Ceviz "     Kg/Meyve Veren Ağaç   2794
 3  2010 "Armut "     Kg/Meyve Veren Ağaç   2532
 4  2010 "Ayva "      Kg/Meyve Veren Ağaç   2176
 5  2010 "Erik "      Kg/Meyve Veren Ağaç   2167
 6  2010 "Kiraz "     Kg/Meyve Veren Ağaç   2126
 7  2010 "Şeftali "   Kg/Meyve Veren Ağaç   2040
 8  2010 "Dut "       Kg/Meyve Veren Ağaç   2005
 9  2010 "Kayısı "    Kg/Meyve Veren Ağaç   1940
10  2010 "Vişne "     Kg/Meyve Veren Ağaç   1802
# … with 443 more rows
…
